{
  "Name": "Alice",
  "Age": 30,
  "IsStudent": false,
  "Hobbies": ["Reading", "Cycling", 10.75],
  "Address": {
    "Street": "123 Elm St",
    "City": "Winter",
    "Country": "Wonderland"
  }
}
